^C:\Users\Alex\source\repos\Skillbox_homework_13\Skillbox_homework_13.vcxproj
C:\Users\Alex\source\repos\Skillbox_homework_13\Release\Skillbox_homework_13.ipdb
C:\Users\Alex\source\repos\Skillbox_homework_13\Release\Skillbox_homework_13.iobj
^C:\Users\Alex\source\repos\Skillbox_homework_13\Skillbox_homework_13.vcxproj
C:\Users\Alex\source\repos\Skillbox_homework_13\Release\Skillbox_homework_13.ipdb
C:\Users\Alex\source\repos\Skillbox_homework_13\Release\Skillbox_homework_13.iobj
^C:\Users\Alex\source\repos\Skillbox_homework_13\Skillbox_homework_13.vcxproj
C:\Users\Alex\source\repos\Skillbox_homework_13\Release\Skillbox_homework_13.ipdb
C:\Users\Alex\source\repos\Skillbox_homework_13\Release\Skillbox_homework_13.iobj
^C:\Users\Alex\source\repos\Skillbox_homework_13\Skillbox_homework_13.vcxproj
C:\Users\Alex\source\repos\Skillbox_homework_13\Release\Skillbox_homework_13.ipdb
C:\Users\Alex\source\repos\Skillbox_homework_13\Release\Skillbox_homework_13.iobj
